{
  "version" : "0.0.7.1",
  "details_url" : "https://bitbucket.org/wisersites/soopz-parent-updates/raw/master/readme.txt",
  "download_url" : "https://bitbucket.org/wisersites/soopz-parent-updates/downloads/soopz_v0.0.7.1.zip"
}